{
  "name": "listen",
  "runtime": "nodejs4.3",
  "description": "Serverless Lambda function for project: alexa-tv-skill",
  "customName": false,
  "customRole": false,
  "handler": "handler.handler",
  "timeout": 6,
  "memorySize": 128,
  "authorizer": {},
  "custom": {
    "excludePatterns": []
  },
  "endpoints": [],
  "events": [],
  "environment": {
    "SERVERLESS_PROJECT": "${project}",
    "SERVERLESS_STAGE": "${stage}",
    "SERVERLESS_REGION": "${region}",
    "COMMAND_QUEUE_URL": "${commandQueueUrl}"
  },
  "vpc": {
    "securityGroupIds": [],
    "subnetIds": []
  }
}
